{
  "properties": [],
  "tags": [
    "anaconda_select_install_lang_filtered",
    "ENV-DISTRI-fedora",
    "LANGUAGE-english"
  ],
  "area": [
    {
      "ypos": 185,
      "height": 25,
      "type": "match",
      "xpos": 221,
      "width": 58
    },
    {
      "xpos": 482,
      "type": "match",
      "width": 66,
      "height": 21,
      "ypos": 189
    }
  ]
}
