{
    "area": [
        {
            "height": 20,
            "type": "match",
            "width": 169,
            "xpos": 603,
            "ypos": 205
        }
    ],
    "tags": [
        "anaconda_select_install_lang_selected",
        "anaconda_select_install_lang_filtered",
        "ENV-DISTRI-fedora",
        "LANGUAGE-english",
        "ENV-FLAVOR-server"
    ]
}
