{
  "properties": [],
  "tags": [
    "anaconda_install_source_selected"
  ],
  "area": [
    {
      "xpos": 57,
      "ypos": 224,
      "width": 23,
      "height": 14,
      "type": "match"
    },
    {
      "xpos": 148,
      "ypos": 227,
      "width": 14,
      "height": 10,
      "type": "match"
    }
  ]
}