{
    "area": [
        {
            "height": 20,
            "type": "match",
            "width": 400,
            "xpos": 620,
            "ypos": 632
        },
        {
            "height": 28,
            "type": "match",
            "width": 22,
            "xpos": 1000,
            "ypos": 678
        }
    ],
    "properties": [],
    "tags": [
        "anaconda_install_done",
        "ENV-DISTRI-fedora",
        "LANGUAGE-french"
    ]
}