{
  "properties": [],
  "tags": [
    "anaconda_install_root_password_screen",
    "ENV-DISTRI-fedora",
    "LANGUAGE-french",
    "ENV-FLAVOR-server"
  ],
  "area": [
    {
      "height": 16,
      "xpos": 212,
      "type": "match",
      "width": 181,
      "ypos": 123
    }
  ]
}