{
  "properties": [],
  "tags": [
    "ENV-DISTRI-fedora",
    "LANGUAGE-french",
    "anaconda_install_user_creation_make_admin"
  ],
  "area": [
    {
      "width": 264,
      "ypos": 213,
      "type": "match",
      "xpos": 339,
      "height": 21
    }
  ]
}