{
  "area": [
    {
      "xpos": 10,
      "width": 67,
      "type": "match",
      "ypos": 6,
      "height": 15
    },
    {
      "ypos": 4,
      "type": "match",
      "height": 18,
      "xpos": 968,
      "width": 43
    }
  ],
  "tags": [
    "DESKTOP-gnome",
    "ENV-DISTRI-fedora",
    "LANGUAGE-english",
    "graphical_desktop_clean"
  ],
  "properties": []
}
