{
  "area": [
    {
      "type": "match",
      "xpos": 330,
      "width": 227,
      "ypos": 143,
      "height": 180
    }
  ],
  "properties": [],
  "tags": [
    "live_initial_anaconda_launcher",
    "live_start_anaconda_icon",
    "ENV-DISTRI-fedora",
    "DESKTOP-gnome"
  ]
}
