{
  "tags": [
    "live_initial_anaconda_launcher",
    "live_start_anaconda_icon",
    "ENV-DISTRI-fedora",
    "DESKTOP-gnome"
  ],
  "area": [
    {
      "xpos": 542,
      "ypos": 205,
      "width": 227,
      "height": 180,
      "type": "match"
    }
  ],
  "properties": []
}
