{
  "properties": [],
  "area": [
    {
      "xpos": 19,
      "ypos": 181,
      "width": 50,
      "height": 13,
      "type": "match"
    }
  ],
  "tags": [
    "cockpit_services"
  ]
}