{
  "properties": [],
  "area": [
    {
      "xpos": 575,
      "ypos": 383,
      "width": 92,
      "height": 13,
      "type": "match"
    }
  ],
  "tags": [
    "freeipa_webui_reset_password_button"
  ]
}