{
  "area": [
    {
      "type": "match",
      "xpos": 241,
      "width": 96,
      "ypos": 121,
      "height": 15
    }
  ],
  "properties": [],
  "tags": [
    "anaconda_install_root_password_screen",
    "ENV-DISTRI-fedora",
    "LANGUAGE-english",
    "ENV-FLAVOR-server"
  ]
}