{
  "tags": [
    "anaconda_minimal_selected",
    "ENV-DISTRI-fedora",
    "LANGUAGE-english"
  ],
  "properties": [],
  "area": [
    {
      "ypos": 177,
      "height": 14,
      "xpos": 28,
      "type": "match",
      "width": 114
    }
  ]
}