{
  "area": [
    {
      "xpos": 351,
      "ypos": 385,
      "width": 60,
      "height": 13,
      "type": "match"
    }
  ],
  "properties": [],
  "tags": [
    "browser_download_save"
  ]
}