{
  "tags": [
    "browser_launcher",
    "firefox_launcher"
  ],
  "properties": [],
  "area": [
    {
      "xpos": 39,
      "ypos": 271,
      "width": 31,
      "height": 31,
      "type": "match"
    }
  ]
}