{
  "tags": [
    "anaconda_main_hub_text"
  ],
  "area": [
    {
      "type": "match",
      "ypos": 338,
      "height": 12,
      "width": 96,
      "xpos": 1
    },
    {
      "type": "match",
      "ypos": 498,
      "height": 13,
      "width": 127,
      "xpos": 71
    },
    {
      "xpos": 8,
      "ypos": 369,
      "width": 119,
      "height": 13,
      "type": "match"
    }
  ],
  "properties": []
}