{
  "properties": [],
  "tags": [
    "user_logged_in",
    "user_console",
    "ENV-DISTRI-fedora",
    "ENV-FLAVOR-server"
  ],
  "area": [
    {
      "ypos": 95,
      "width": 41,
      "height": 14,
      "xpos": 7,
      "type": "match"
    },
    {
      "xpos": 136,
      "ypos": 93,
      "width": 17,
      "height": 17,
      "type": "match"
    }
  ]
}