{
  "area": [
    {
      "ypos": 348,
      "xpos": 380,
      "height": 56,
      "type": "match",
      "width": 73
    }
  ],
  "properties": [],
  "tags": [
    "anaconda_part_fs",
    "anaconda_part_fs_ext4_selected",
    "ENV-DISTRI-fedora"
  ]
}