{
    "area": [
        {
            "height": 19,
            "type": "match",
            "width": 180,
            "xpos": 270,
            "ypos": 495
        }
    ],
    "properties": [],
    "tags": [
        "anaconda_manual_partitioning",
        "ENV-DISTRI-fedora",
        "LANGUAGE-english",
        "ENV-FLAVOR-server"
    ]
}