{
    "area": [
        {
            "height": 20,
            "type": "match",
            "width": 110,
            "xpos": 65,
            "ypos": 195
        }
    ],
    "properties": [],
    "tags": [
        "anaconda_part_scheme_standard",
        "ENV-DISTRI-fedora",
        "LANGUAGE-english",
        "ENV-FLAVOR-server"
    ]
}