{
  "area": [
    {
      "ypos": 186,
      "width": 62,
      "height": 39,
      "xpos": 221,
      "type": "match"
    },
    {
      "ypos": 189,
      "width": 71,
      "type": "match",
      "xpos": 482,
      "height": 33
    }
  ],
  "tags": [
    "anaconda_select_install_lang_filtered",
    "LANGUAGE-russian"
  ],
  "properties": []
}