{
    "area": [
        {
            "height": 77,
            "type": "match",
            "width": 74,
            "xpos": 184,
            "ypos": 461
        }
    ],
    "tags": [
        "anaconda_main_hub_install_destination",
        "ENV-DISTRI-fedora"
    ]
}
