{
  "properties": [],
  "area": [
    {
      "xpos": 254,
      "ypos": 167,
      "width": 71,
      "height": 61,
      "type": "match"
    }
  ],
  "tags": [
    "DESKTOP-kde",
    "desktop_package_tool_update_authenticate"
  ]
}